dump.vcd
$date
	Thu Apr 23 18:01:54 2026
$end
$version
	Icarus Verilog
$end
$timescale
	1ps
$end
$scope module tb_top $end
$var wire 4 ! match_bus [3:0] $end
$var wire 4 " active_bus [3:0] $end
$var reg 8 # char_in [7:0] $end
$var reg 1 $ clk $end
$var reg 1 % en $end
$var reg 1 & rst $end
$var reg 1 ' start $end
$scope module uut $end
$var wire 8 ( char_in [7:0] $end
$var wire 1 $ clk $end
$var wire 1 % en $end
$var wire 1 & rst $end
$var wire 1 ' start $end
$var wire 4 ) match_bus [3:0] $end
$var wire 4 * active_bus [3:0] $end
$scope module inst_0 $end
$var wire 8 + char_in [7:0] $end
$var wire 1 $ clk $end
$var wire 1 % en $end
$var wire 1 & rst $end
$var wire 1 ' start $end
$var wire 6 , next_state [5:0] $end
$var wire 1 - match $end
$var wire 1 . active $end
$var reg 6 / state_reg [5:0] $end
$upscope $end
$scope module inst_1 $end
$var wire 8 0 char_in [7:0] $end
$var wire 1 $ clk $end
$var wire 1 % en $end
$var wire 1 & rst $end
$var wire 1 ' start $end
$var wire 11 1 next_state [10:0] $end
$var wire 1 2 match $end
$var wire 1 3 active $end
$var reg 11 4 state_reg [10:0] $end
$upscope $end
$scope module inst_2 $end
$var wire 8 5 char_in [7:0] $end
$var wire 1 $ clk $end
$var wire 1 % en $end
$var wire 1 & rst $end
$var wire 1 ' start $end
$var wire 12 6 next_state [11:0] $end
$var wire 1 7 match $end
$var wire 1 8 active $end
$var reg 12 9 state_reg [11:0] $end
$upscope $end
$scope module inst_3 $end
$var wire 8 : char_in [7:0] $end
$var wire 1 $ clk $end
$var wire 1 % en $end
$var wire 1 & rst $end
$var wire 1 ' start $end
$var wire 17 ; next_state [16:0] $end
$var wire 1 < match $end
$var wire 1 = active $end
$var reg 17 > state_reg [16:0] $end
$upscope $end
$upscope $end
$upscope $end
$enddefinitions $end
$comment Show the parameter values. $end
$dumpall
$end
#0
$dumpvars
bx >
x=
x<
b1 ;
b0 :
bx 9
x8
x7
b1 6
b0 5
bx 4
x3
x2
b1 1
b0 0
bx /
x.
x-
b1 ,
b0 +
bx *
bx )
b0 (
0'
1&
1%
0$
b0 #
bx "
bx !
$end
#5000
b0 !
b0 )
b0 "
b0 *
0-
0.
02
03
07
08
0<
0=
b1 /
b1 4
b1 9
b1 >
1$
#10000
0$
#15000
1$
#20000
0$
0&
#25000
1$
#30000
0$
1'
#35000
1$
#40000
b11 ,
b11 ;
b11 1
b11 6
0$
b110100 #
b110100 (
b110100 +
b110100 0
b110100 5
b110100 :
0'
#45000
b111 ;
b111 1
b111 6
b1111 "
b1111 *
1.
13
18
1=
b11 /
b11 4
b11 9
b11 >
1$
#50000
0$
b110001 #
b110001 (
b110001 +
b110001 0
b110001 5
b110001 :
#55000
b1111 ;
b1111 6
b1111 1
b111 >
b111 9
b111 4
1$
#60000
0$
#65000
b11111 ;
b11111 1
b1111 4
b1111 9
b1111 >
1$
#70000
0$
#75000
b111111 ;
b111111 1
b11111 >
b11111 4
1$
#80000
0$
b110010 #
b110010 (
b110010 +
b110010 0
b110010 5
b110010 :
#85000
b1111111 ;
b1111111 1
b111111 4
b111111 >
1$
#90000
0$
#95000
b11111111 ;
b11111111 1
b1111111 >
b1111111 4
1$
#100000
0$
#105000
b111111111 ;
b111111111 1
b11111111 4
b11111111 >
1$
#110000
0$
#115000
b1111111111 ;
b1111111111 1
b111111111 >
b111111111 4
1$
#120000
0$
b110011 #
b110011 (
b110011 +
b110011 0
b110011 5
b110011 :
#125000
b11111111111 ;
b11111111111 1
b1111111111 4
b1111111111 >
1$
#130000
0$
#135000
b111111111111 ;
b10 !
b10 )
12
b11111111111 >
b11111111111 4
1$
#140000
0$
#145000
b1111111111111 ;
b111111111111 >
1$
#150000
0$
#155000
b11111111111111 ;
b1111111111111 >
1$
#160000
0$
b110100 #
b110100 (
b110100 +
b110100 0
b110100 5
b110100 :
#165000
b111111111111111 ;
b11111111111111 >
1$
#170000
0$
#175000
b1111111111111111 ;
b111111111111111 >
1$
#180000
0$
#185000
b11111111111111111 ;
b1111111111111111 >
1$
#190000
0$
#195000
b1010 !
b1010 )
1<
b11111111111111111 >
1$
#200000
0$
#205000
1$
#210000
0$
#215000
1$
#220000
0$
1'
#225000
b11 ;
b11 1
b11 6
b0 !
b0 )
b0 "
b0 *
0.
02
03
08
0<
0=
b1 /
b1 4
b1 9
b1 >
1$
#230000
0$
b110001 #
b110001 (
b110001 +
b110001 0
b110001 5
b110001 :
0'
#235000
b111 ;
b111 6
b111 1
b1111 "
b1111 *
1=
18
13
1.
b11 >
b11 9
b11 4
b11 /
1$
#240000
0$
b110010 #
b110010 (
b110010 +
b110010 0
b110010 5
b110010 :
#245000
b1111 ;
b1111 1
b1111 6
b111 4
b111 9
b111 >
1$
#250000
0$
b110011 #
b110011 (
b110011 +
b110011 0
b110011 5
b110011 :
#255000
b11111 ;
b11111 1
b1111 >
b1111 9
b1111 4
1$
#260000
b1 ,
b1 ;
b1 1
b10001 6
0$
b101101 #
b101101 (
b101101 +
b101101 0
b101101 5
b101101 :
#265000
b1 6
b100 "
b100 *
0.
03
0=
b1 /
b1 4
b10001 9
b1 >
1$
#270000
b11 ,
b11 ;
b11 1
b100011 6
0$
b110100 #
b110100 (
b110100 +
b110100 0
b110100 5
b110100 :
#275000
b111 ;
b1000111 6
b111 1
b1111 "
b1111 *
1=
13
1.
b11 >
b100011 9
b11 4
b11 /
1$
#280000
0$
b110101 #
b110101 (
b110101 +
b110101 0
b110101 5
b110101 :
#285000
b1111 ;
b1111 1
b1111 6
b111 4
b1000111 9
b111 >
1$
#290000
b1 ,
b1 ;
b1 1
b10000001 6
0$
b101101 #
b101101 (
b101101 +
b101101 0
b101101 5
b101101 :
#295000
b1 6
b100 "
b100 *
0=
03
0.
b1 >
b10000001 9
b1 4
b1 /
1$
#300000
b11 ,
b11 ;
b11 1
b100000011 6
0$
b110110 #
b110110 (
b110110 +
b110110 0
b110110 5
b110110 :
#305000
b111 ;
b111 1
b1000000111 6
b1111 "
b1111 *
1.
13
1=
b11 /
b11 4
b100000011 9
b11 >
1$
#310000
0$
b110111 #
b110111 (
b110111 +
b110111 0
b110111 5
b110111 :
#315000
b1111 ;
b10000001111 6
b1111 1
b111 >
b1000000111 9
b111 4
1$
#320000
0$
b111000 #
b111000 (
b111000 +
b111000 0
b111000 5
b111000 :
#325000
b11111 ;
b11111 1
b100000001111 6
b1111 4
b10000001111 9
b1111 >
1$
#330000
0$
b111001 #
b111001 (
b111001 +
b111001 0
b111001 5
b111001 :
#335000
b111111 ;
b1111 6
b111111 1
b100 !
b100 )
17
b11111 >
b100000001111 9
b11111 4
1$
#340000
0$
#345000
b1111111 ;
b1111111 1
b0 !
b0 )
07
b111111 4
b1111 9
b111111 >
1$
#350000
0$
#355000
b11111111 ;
b11111111 1
b1111111 >
b1111111 4
1$
#360000
0$
1'
#365000
b11 ;
b11 1
b11 6
b0 "
b0 *
0.
03
08
0=
b1 /
b1 4
b1 9
b1 >
1$
#370000
b1 ;
b1 1
b1 6
0$
b1110101 #
b1110101 (
b1110101 +
b1110101 0
b1110101 5
b1110101 :
0'
#375000
b1 "
b1 *
1.
b11 /
1$
#380000
0$
b1110011 #
b1110011 (
b1110011 +
b1110011 0
b1110011 5
b1110011 :
#385000
1$
#390000
0$
b1100101 #
b1100101 (
b1100101 +
b1100101 0
b1100101 5
b1100101 :
#395000
1$
#400000
0$
b1110010 #
b1110010 (
b1110010 +
b1110010 0
b1110010 5
b1110010 :
#405000
1$
#410000
b101 ,
0$
b1000000 #
b1000000 (
b1000000 +
b1000000 0
b1000000 5
b1000000 :
#415000
b1 ,
b101 /
1$
#420000
b1011 ,
0$
b1100101 #
b1100101 (
b1100101 +
b1100101 0
b1100101 5
b1100101 :
#425000
b1011 /
1$
#430000
0$
b1111000 #
b1111000 (
b1111000 +
b1111000 0
b1111000 5
b1111000 :
#435000
1$
#440000
0$
b1100001 #
b1100001 (
b1100001 +
b1100001 0
b1100001 5
b1100001 :
#445000
1$
#450000
0$
b1101101 #
b1101101 (
b1101101 +
b1101101 0
b1101101 5
b1101101 :
#455000
1$
#460000
0$
b1110000 #
b1110000 (
b1110000 +
b1110000 0
b1110000 5
b1110000 :
#465000
1$
#470000
0$
b1101100 #
b1101100 (
b1101100 +
b1101100 0
b1101100 5
b1101100 :
#475000
1$
#480000
0$
b1100101 #
b1100101 (
b1100101 +
b1100101 0
b1100101 5
b1100101 :
#485000
1$
#490000
b1 ;
b11011 ,
b1 1
b1 6
0$
b101110 #
b101110 (
b101110 +
b101110 0
b101110 5
b101110 :
#495000
b11011 /
1$
#500000
b101011 ,
0$
b1100011 #
b1100011 (
b1100011 +
b1100011 0
b1100011 5
b1100011 :
#505000
b1 !
b1 )
1-
b101011 /
1$
#510000
0$
b1101111 #
b1101111 (
b1101111 +
b1101111 0
b1101111 5
b1101111 :
#515000
1$
#520000
0$
b1101101 #
b1101101 (
b1101101 +
b1101101 0
b1101101 5
b1101101 :
#525000
1$
#530000
0$
#535000
1$
#540000
0$
#545000
1$
#550000
0$
1'
#555000
b11 ,
b0 !
b0 )
b0 "
b0 *
0-
0.
b1 /
1$
#560000
0$
b1001101 #
b1001101 (
b1001101 +
b1001101 0
b1001101 5
b1001101 :
0'
#565000
b1 "
b1 *
1.
b11 /
1$
#570000
0$
b1111001 #
b1111001 (
b1111001 +
b1111001 0
b1111001 5
b1111001 :
#575000
1$
#580000
b1 ,
b1 ;
b1 1
b1 6
0$
b100000 #
b100000 (
b100000 +
b100000 0
b100000 5
b100000 :
#585000
b0 "
b0 *
0.
b1 /
1$
#590000
b11 ,
0$
b1000011 #
b1000011 (
b1000011 +
b1000011 0
b1000011 5
b1000011 :
#595000
b1 "
b1 *
1.
b11 /
1$
#600000
0$
#605000
1$
#610000
b1 ,
b1 ;
b1 1
b1 6
0$
b100000 #
b100000 (
b100000 +
b100000 0
b100000 5
b100000 :
#615000
b0 "
b0 *
0.
b1 /
1$
#620000
b11 ,
0$
b1101001 #
b1101001 (
b1101001 +
b1101001 0
b1101001 5
b1101001 :
#625000
b1 "
b1 *
1.
b11 /
1$
#630000
0$
b1110011 #
b1110011 (
b1110011 +
b1110011 0
b1110011 5
b1110011 :
#635000
1$
#640000
b1 ,
b1 ;
b1 1
b1 6
0$
b100000 #
b100000 (
b100000 +
b100000 0
b100000 5
b100000 :
#645000
b0 "
b0 *
0.
b1 /
1$
#650000
b11 ,
b11 ;
b11 1
b11 6
0$
b110100 #
b110100 (
b110100 +
b110100 0
b110100 5
b110100 :
#655000
b111 ;
b111 6
b111 1
b1111 "
b1111 *
1=
18
13
1.
b11 >
b11 9
b11 4
b11 /
1$
#660000
0$
b110001 #
b110001 (
b110001 +
b110001 0
b110001 5
b110001 :
#665000
b1111 ;
b1111 1
b1111 6
b111 4
b111 9
b111 >
1$
#670000
0$
#675000
b11111 ;
b11111 1
b1111 >
b1111 9
b1111 4
1$
#680000
0$
#685000
b111111 ;
b111111 1
b11111 4
b11111 >
1$
#690000
0$
b110010 #
b110010 (
b110010 +
b110010 0
b110010 5
b110010 :
#695000
b1111111 ;
b1111111 1
b111111 >
b111111 4
1$
#700000
0$
#705000
b11111111 ;
b11111111 1
b1111111 4
b1111111 >
1$
#710000
0$
#715000
b111111111 ;
b111111111 1
b11111111 >
b11111111 4
1$
#720000
0$
#725000
b1111111111 ;
b1111111111 1
b111111111 4
b111111111 >
1$
#730000
0$
b110011 #
b110011 (
b110011 +
b110011 0
b110011 5
b110011 :
#735000
b11111111111 ;
b11111111111 1
b1111111111 >
b1111111111 4
1$
#740000
0$
#745000
b111111111111 ;
b10 !
b10 )
12
b11111111111 4
b11111111111 >
1$
#750000
0$
#755000
b1111111111111 ;
b111111111111 >
1$
#760000
0$
#765000
b11111111111111 ;
b1111111111111 >
1$
#770000
0$
b110100 #
b110100 (
b110100 +
b110100 0
b110100 5
b110100 :
#775000
b111111111111111 ;
b11111111111111 >
1$
#780000
0$
#785000
b1111111111111111 ;
b111111111111111 >
1$
#790000
0$
#795000
b11111111111111111 ;
b1111111111111111 >
1$
#800000
0$
#805000
b1010 !
b1010 )
1<
b11111111111111111 >
1$
#810000
b1 ,
b1 ;
b1 1
b1 6
0$
b100000 #
b100000 (
b100000 +
b100000 0
b100000 5
b100000 :
#815000
b0 !
b0 )
b0 "
b0 *
0<
0=
08
02
03
0.
b1 >
b1 9
b1 4
b1 /
1$
#820000
b11 ,
0$
b1100001 #
b1100001 (
b1100001 +
b1100001 0
b1100001 5
b1100001 :
#825000
b1 "
b1 *
1.
b11 /
1$
#830000
0$
b1101110 #
b1101110 (
b1101110 +
b1101110 0
b1101110 5
b1101110 :
#835000
1$
#840000
0$
b1100100 #
b1100100 (
b1100100 +
b1100100 0
b1100100 5
b1100100 :
#845000
1$
#850000
b1 ,
b1 ;
b1 1
b1 6
0$
b100000 #
b100000 (
b100000 +
b100000 0
b100000 5
b100000 :
#855000
b0 "
b0 *
0.
b1 /
1$
#860000
b11 ,
0$
b1101101 #
b1101101 (
b1101101 +
b1101101 0
b1101101 5
b1101101 :
#865000
b1 "
b1 *
1.
b11 /
1$
#870000
0$
b1111001 #
b1111001 (
b1111001 +
b1111001 0
b1111001 5
b1111001 :
#875000
1$
#880000
b1 ,
b1 ;
b1 1
b1 6
0$
b100000 #
b100000 (
b100000 +
b100000 0
b100000 5
b100000 :
#885000
b0 "
b0 *
0.
b1 /
1$
#890000
b11 ,
0$
b1010011 #
b1010011 (
b1010011 +
b1010011 0
b1010011 5
b1010011 :
#895000
b1 "
b1 *
1.
b11 /
1$
#900000
0$
#905000
1$
#910000
0$
b1001110 #
b1001110 (
b1001110 +
b1001110 0
b1001110 5
b1001110 :
#915000
1$
#920000
b1 ,
b1 ;
b1 1
b1 6
0$
b100000 #
b100000 (
b100000 +
b100000 0
b100000 5
b100000 :
#925000
b0 "
b0 *
0.
b1 /
1$
#930000
b11 ,
0$
b1101001 #
b1101001 (
b1101001 +
b1101001 0
b1101001 5
b1101001 :
#935000
b1 "
b1 *
1.
b11 /
1$
#940000
0$
b1110011 #
b1110011 (
b1110011 +
b1110011 0
b1110011 5
b1110011 :
#945000
1$
#950000
b1 ,
b1 ;
b1 1
b1 6
0$
b100000 #
b100000 (
b100000 +
b100000 0
b100000 5
b100000 :
#955000
b0 "
b0 *
0.
b1 /
1$
#960000
b11 ,
b11 ;
b11 1
b11 6
0$
b110001 #
b110001 (
b110001 +
b110001 0
b110001 5
b110001 :
#965000
b111 ;
b111 1
b111 6
b1111 "
b1111 *
1.
13
18
1=
b11 /
b11 4
b11 9
b11 >
1$
#970000
0$
b110010 #
b110010 (
b110010 +
b110010 0
b110010 5
b110010 :
#975000
b1111 ;
b1111 6
b1111 1
b111 >
b111 9
b111 4
1$
#980000
0$
b110011 #
b110011 (
b110011 +
b110011 0
b110011 5
b110011 :
#985000
b11111 ;
b11111 1
b1111 4
b1111 9
b1111 >
1$
#990000
b1 ,
b1 ;
b1 1
b10001 6
0$
b101101 #
b101101 (
b101101 +
b101101 0
b101101 5
b101101 :
#995000
b1 6
b100 "
b100 *
0=
03
0.
b1 >
b10001 9
b1 4
b1 /
1$
#1000000
b11 ,
b11 ;
b11 1
b100011 6
0$
b110100 #
b110100 (
b110100 +
b110100 0
b110100 5
b110100 :
#1005000
b111 ;
b111 1
b1000111 6
b1111 "
b1111 *
1.
13
1=
b11 /
b11 4
b100011 9
b11 >
1$
#1010000
0$
b110101 #
b110101 (
b110101 +
b110101 0
b110101 5
b110101 :
#1015000
b1111 ;
b1111 6
b1111 1
b111 >
b1000111 9
b111 4
1$
#1020000
b1 ,
b1 ;
b1 1
b10000001 6
0$
b101101 #
b101101 (
b101101 +
b101101 0
b101101 5
b101101 :
#1025000
b1 6
b100 "
b100 *
0.
03
0=
b1 /
b1 4
b10000001 9
b1 >
1$
#1030000
b11 ,
b11 ;
b11 1
b100000011 6
0$
b110110 #
b110110 (
b110110 +
b110110 0
b110110 5
b110110 :
#1035000
b111 ;
b1000000111 6
b111 1
b1111 "
b1111 *
1=
13
1.
b11 >
b100000011 9
b11 4
b11 /
1$
#1040000
0$
b110111 #
b110111 (
b110111 +
b110111 0
b110111 5
b110111 :
#1045000
b1111 ;
b1111 1
b10000001111 6
b111 4
b1000000111 9
b111 >
1$
#1050000
0$
b111000 #
b111000 (
b111000 +
b111000 0
b111000 5
b111000 :
#1055000
b11111 ;
b100000001111 6
b11111 1
b1111 >
b10000001111 9
b1111 4
1$
#1060000
0$
b111001 #
b111001 (
b111001 +
b111001 0
b111001 5
b111001 :
#1065000
b111111 ;
b111111 1
b1111 6
b100 !
b100 )
17
b11111 4
b100000001111 9
b11111 >
1$
#1070000
b1 ;
b1 1
b1 6
0$
b101110 #
b101110 (
b101110 +
b101110 0
b101110 5
b101110 :
#1075000
b0 !
b0 )
b1 "
b1 *
0=
07
08
03
b1 >
b1 9
b1 4
1$
#1080000
b1 ,
0$
b100000 #
b100000 (
b100000 +
b100000 0
b100000 5
b100000 :
#1085000
b0 "
b0 *
0.
b1 /
1$
#1090000
b11 ,
0$
b1000011 #
b1000011 (
b1000011 +
b1000011 0
b1000011 5
b1000011 :
#1095000
b1 "
b1 *
1.
b11 /
1$
#1100000
0$
b1101111 #
b1101111 (
b1101111 +
b1101111 0
b1101111 5
b1101111 :
#1105000
1$
#1110000
0$
b1101110 #
b1101110 (
b1101110 +
b1101110 0
b1101110 5
b1101110 :
#1115000
1$
#1120000
0$
b1110100 #
b1110100 (
b1110100 +
b1110100 0
b1110100 5
b1110100 :
#1125000
1$
#1130000
0$
b1100001 #
b1100001 (
b1100001 +
b1100001 0
b1100001 5
b1100001 :
#1135000
1$
#1140000
0$
b1100011 #
b1100011 (
b1100011 +
b1100011 0
b1100011 5
b1100011 :
#1145000
1$
#1150000
0$
b1110100 #
b1110100 (
b1110100 +
b1110100 0
b1110100 5
b1110100 :
#1155000
1$
#1160000
b1 ,
b1 ;
b1 1
b1 6
0$
b100000 #
b100000 (
b100000 +
b100000 0
b100000 5
b100000 :
#1165000
b0 "
b0 *
0.
b1 /
1$
#1170000
b11 ,
0$
b1110101 #
b1110101 (
b1110101 +
b1110101 0
b1110101 5
b1110101 :
#1175000
b1 "
b1 *
1.
b11 /
1$
#1180000
0$
b1110011 #
b1110011 (
b1110011 +
b1110011 0
b1110011 5
b1110011 :
#1185000
1$
#1190000
0$
b1100101 #
b1100101 (
b1100101 +
b1100101 0
b1100101 5
b1100101 :
#1195000
1$
#1200000
0$
b1110010 #
b1110010 (
b1110010 +
b1110010 0
b1110010 5
b1110010 :
#1205000
1$
#1210000
b101 ,
0$
b1000000 #
b1000000 (
b1000000 +
b1000000 0
b1000000 5
b1000000 :
#1215000
b1 ,
b101 /
1$
#1220000
b1011 ,
0$
b1100101 #
b1100101 (
b1100101 +
b1100101 0
b1100101 5
b1100101 :
#1225000
b1011 /
1$
#1230000
0$
b1111000 #
b1111000 (
b1111000 +
b1111000 0
b1111000 5
b1111000 :
#1235000
1$
#1240000
0$
b1100001 #
b1100001 (
b1100001 +
b1100001 0
b1100001 5
b1100001 :
#1245000
1$
#1250000
0$
b1101101 #
b1101101 (
b1101101 +
b1101101 0
b1101101 5
b1101101 :
#1255000
1$
#1260000
0$
b1110000 #
b1110000 (
b1110000 +
b1110000 0
b1110000 5
b1110000 :
#1265000
1$
#1270000
0$
b1101100 #
b1101100 (
b1101100 +
b1101100 0
b1101100 5
b1101100 :
#1275000
1$
#1280000
0$
b1100101 #
b1100101 (
b1100101 +
b1100101 0
b1100101 5
b1100101 :
#1285000
1$
#1290000
b1 ;
b11011 ,
b1 1
b1 6
0$
b101110 #
b101110 (
b101110 +
b101110 0
b101110 5
b101110 :
#1295000
b11011 /
1$
#1300000
b101011 ,
0$
b1100011 #
b1100011 (
b1100011 +
b1100011 0
b1100011 5
b1100011 :
#1305000
b1 !
b1 )
1-
b101011 /
1$
#1310000
0$
b1101111 #
b1101111 (
b1101111 +
b1101111 0
b1101111 5
b1101111 :
#1315000
1$
#1320000
0$
b1101101 #
b1101101 (
b1101101 +
b1101101 0
b1101101 5
b1101101 :
#1325000
1$
#1330000
b1 ;
b11011 ,
b1 1
b1 6
0$
b101110 #
b101110 (
b101110 +
b101110 0
b101110 5
b101110 :
#1335000
b0 !
b0 )
0-
b11011 /
1$
